Getting Started With qzwsmix99rt
…
(tbl_data <- dplyr::select(tbl_qm, Progeny, Sex, Phen))
#> # A tibble: 4,995 × 3
#>    Progeny Sex    Phen
#>      <dbl> <chr> <dbl>
#>  1       1 M        NA
#>  2       2 M        NA
#>  3       3 M        NA
#>  4       4 M        NA
#>  5       5 M        NA
#>  6       6 M        NA
#>  7       7 M        NA
#>  8       8 M        NA
#>  9       9 M        NA
#> 10      10 M        NA
#> # … with 4,985 more rows

(tbl_data <- dplyr::mutate(tbl_data, Sex = dplyr::recode(Sex, `M` = 1, `F` = 2)))
#> # A tibble: 4,995 × 3
#>    Progeny   Sex  Phen
#>      <dbl> <dbl> <dbl>
#>  1       1     1    NA
#>  2       2     1    NA
#>  3       3     1    NA
#>  4       4     1    NA
#>  5       5     1    NA
#>  6       6     1    NA
#>  7       7     1    NA
#>  8       8     1    NA
#>  9       9     1    NA
#> 10      10     1    NA
#> # … with 4,985 more rows

pn_mvc       = -99999.0
(tbl_data <- dplyr::mutate(tbl_data, Phen = tidyr::replace_na(Phen, pn_mvc)))
#> # A tibble: 4,995 × 3
#>    Progeny   Sex   Phen
#>      <dbl> <dbl>  <dbl>
#>  1       1     1 -99999
#>  2       2     1 -99999
#>  3       3     1 -99999
#>  4       4     1 -99999
#>  5       5     1 -99999
#>  6       6     1 -99999
#>  7       7     1 -99999
#>  8       8     1 -99999
#>  9       9     1 -99999
#> 10      10     1 -99999
#> # … with 4,985 more rows
…
